<?xml version="1.0" encoding="UTF-8"?>
<svg width="32px" height="32px" viewBox="0 0 32 32" version="1.1" xmlns="http://www.w3.org/2000/svg" xmlns:xlink="http://www.w3.org/1999/xlink">
    <!-- Generator: Sketch 51.3 (57544) - http://www.bohemiancoding.com/sketch -->
    <title>Group Copy 5</title>
    <desc>Created with Sketch.</desc>
    <defs>
        <filter x="-3.3%" y="-3.4%" width="106.7%" height="106.9%" filterUnits="objectBoundingBox" id="filter-1">
            <feGaussianBlur stdDeviation="0" in="SourceGraphic"></feGaussianBlur>
        </filter>
    </defs>
    <g id="Designs" stroke="none" stroke-width="1" fill="none" fill-rule="evenodd">
        <g id="Desktop-HD-Copy-17" transform="translate(-372.000000, -1217.000000)">
            <g id="Group-Copy-5" transform="translate(373.000000, 1218.000000)">
                <ellipse id="Oval-4" stroke="#FFFFFF" stroke-width="2" opacity="0.712332589" filter="url(#filter-1)" cx="15" cy="14.5945946" rx="15" ry="14.5945946"></ellipse>
                <polygon id="Triangle" fill="#FFFFFF" points="19 14.3082863 13 18.9155709 13 9.7010017"></polygon>
            </g>
        </g>
    </g>
</svg>